email;sponsor name;username;amount usdh
valentinobvincev866@gmail.com;cryptoconsulting;valetyn;101.64
funt500@gmail.com;valetyn;ihor;0
airdrop0410@gmail.com;valetyn;mainpool;0
bitcoin2416@gmail.com;valetyn;mainpool8;0
okopirms@yandex.ru;valetyn;timesmoney;0
alivaliyev655@gmail.com;valetyn;king0106;101.64
syntera.mj@yahoo.com;valetyn;synteramj;101.64
alius.jankauskas@yahoo.com;synteramj;syntrerasia;101.64
vasif.abbas@gmail.com;king0106;intelligent888;101.64
turalazadaliyev96@gmail.com;king0106;vramin;0
marianasto111@abv.bg;king0106;meri1;0
valya.kazak1998@mail.ru;valetyn;klim777;0